        Frequency / GHz                Z/imaginary
----------------------------------------------------------------------
                       0                  1.8980871e-010
            0.0022753654                       -26.41597
            0.0045507308                       -107.1831
            0.0068260962                      -135.10324
            0.0091014616                      -69.360392
             0.011376827                      -28.934611
             0.013652192                      -46.977195
             0.015927558                      -41.713753
             0.018202923                      -16.953714
             0.020478289                      -23.020595
             0.022753654                      -29.570094
             0.025029019                      -13.581352
             0.027304385                       -11.46539
              0.02957975                      -20.720469
             0.031855116                      -12.321241
             0.034130481                      -5.4115409
             0.036405846                      -13.296824
             0.038681212                      -11.252209
             0.040956577                        -2.57244
             0.043231942                      -7.0200063
             0.045507308                       -9.486114
             0.047782673                      -1.5799067
             0.050058039                      -2.0757668
             0.052333404                      -6.8497842
             0.054608769                      -1.3807501
             0.056884135                       1.4695677
               0.0591595                       -3.540388
             0.061434866                      -1.2585098
             0.063710231                        3.615901
             0.065985596                     0.027131538
             0.068260962                     -0.66349913
             0.070536327                       4.6165622
             0.072811693                       3.3056657
             0.075087058                      0.55931076
             0.077362423                       4.9165266
             0.079637789                       6.0877764
             0.081913154                       2.5866451
              0.08418852                       5.0608064
             0.086463885                       8.0911167
              0.08873925                       5.0626938
             0.091014616                       5.3640894
             0.093289981                       9.2688116
             0.095565347                       7.6763063
             0.097840712                       6.1597876
              0.10011608                       9.8033904
              0.10239144                        10.03062
              0.10466681                       7.5206832
              0.10694217                       10.036349
              0.10921754                       11.920375
               0.1114929                       9.3939958
              0.11376827                       10.330169
              0.11604364                       13.260841
                0.118319                       11.550804
              0.12059437                       10.897719
              0.12286973                       14.018187
               0.1251451                        13.68118
              0.12742046                          11.945
              0.12969583                       14.436705
              0.13197119                       15.518695
              0.13424656                       13.419453
              0.13652192                       14.747893
              0.13879729                       16.930893
              0.14107265                       15.234615
              0.14334802                       15.221045
              0.14562339                       17.871325
              0.14789875                       17.160036
              0.15017412                       16.049717
              0.15244948                       18.464288
              0.15472485                       18.976361
              0.15700021                       17.296863
              0.15927558                        18.88467
              0.16155094                       20.468897
              0.16382631                       18.863769
              0.16610167                       19.327382
              0.16837704                       21.549379
               0.1706524                       20.613603
              0.17292777                       20.016879
              0.17520314                       22.272863
               0.1774785                       22.337186
              0.17975387                       21.042838
              0.18202923                       22.775355
               0.1843046                        23.87651
              0.18657996                       22.445615
              0.18885533                       23.278321
              0.19113069                       25.099987
              0.19340606                       24.062067
              0.19568142                       23.922619
              0.19795679                       25.988464
              0.20023215                       25.726738
              0.20250752                       24.818295
              0.20478289                       26.609648
              0.20705825                       27.274151
              0.20933362                        26.02904
              0.21160898                       27.133462
              0.21388435                       28.576496
              0.21615971                       27.495007
              0.21843508                       27.730849
              0.22071044                       29.591438
              0.22298581                       29.109619
              0.22526117                       28.565458
              0.22753654                       30.357641
               0.2298119                       30.683145
              0.23208727                       29.671226
              0.23436264                       30.973912
                0.236638                       32.084667
              0.23891337                       31.054725
              0.24118873                       31.616501
               0.2434641                       33.243477
              0.24573946                        32.60664
              0.24801483                       32.396689
              0.25029019                       34.133181
              0.25256556                       34.178477
              0.25484092                       33.412458
              0.25711629                       34.844147
              0.25939165                       35.646301
              0.26166702                       34.695474
              0.26394239                       35.500688
              0.26621775                       36.885527
              0.26849312                       36.177919
              0.27076848                       36.284312
              0.27304385                       37.930989
              0.27531921                       37.773317
              0.27759458                       37.279222
              0.27986994                       38.788601
              0.28214531                       39.324737
              0.28442067                       38.521732
              0.28669604                       39.557712
               0.2889714                       40.722005
              0.29124677                       39.990075
              0.29352214                       40.364135
               0.2957975                       41.882397
              0.29807287                       41.559183
              0.30034823                       41.312178
               0.3026236                       42.851773
              0.30489896                       43.172751
              0.30717433                       42.534923
              0.30944969                       43.730111
              0.31172506                       44.684459
              0.31400042                       43.994353
              0.31627579                       44.629089
              0.31855116                       46.050598
              0.32082652                       45.677657
              0.32310189                       45.720182
              0.32537725                       47.285019
              0.32765262                       47.452076
              0.32992798                       47.019663
              0.33220335                       48.371745
              0.33447871                       49.178194
              0.33675408                       48.584895
              0.33902944                       49.457072
              0.34130481                       50.801621
              0.34358017                        50.42928
              0.34585554                       50.731792
              0.34813091                       52.326913
              0.35040627                       52.443853
              0.35268164                       52.256301
                0.354957                       53.761331
              0.35723237                       54.530704
              0.35950773                       54.171774
               0.3617831                       55.353134
              0.36405846                         56.7289
              0.36633383                       56.481595
              0.36860919                       57.096886
              0.37088456                       58.799053
              0.37315992                       59.027464
              0.37543529                        59.29865
              0.37771066                       61.262594
              0.37998602                       62.304453
              0.38226139                       62.370848
              0.38453675                       64.154329
              0.38681212                       66.061031
              0.38908748                       66.343543
              0.39136285                       67.679847
              0.39363821                       70.307135
              0.39591358                       71.654353
              0.39818894                       73.472207
              0.40046431                       77.817053
              0.40273967                       82.068751
              0.40501504                       85.819896
              0.40729041                       92.003366
              0.40956577                       99.660092
              0.41184114                       106.91271
               0.4141165                       113.99908
              0.41639187                       113.16632
              0.41866723                        90.91866
               0.4209426                       50.873879
              0.42321796                       16.920508
              0.42549333                       4.8328696
              0.42776869                       7.1308101
              0.43004406                       11.349074
              0.43231942                       16.122527
              0.43459479                       23.255954
              0.43687016                       29.345219
              0.43914552                        32.39753
              0.44142089                       35.392957
              0.44369625                       39.057611
              0.44597162                       40.908248
              0.44824698                       41.748731
              0.45052235                       43.843319
              0.45279771                       45.799797
              0.45507308                       46.465749
              0.45734844                       47.692769
              0.45962381                       49.559748
              0.46189917                       50.316408
              0.46417454                       50.263766
              0.46644991                       49.789628
              0.46872527                       48.636922
              0.47100064                       48.807817
                0.473276                       50.696781
              0.47555137                       50.399459
              0.47782673                       47.759256
               0.4801021                       47.652289
              0.48237746                       49.976182
              0.48465283                       50.710245
              0.48692819                       50.776377
              0.48920356                       52.258336
              0.49147892                       53.172925
              0.49375429                       53.209627
              0.49602966                       54.427095
              0.49830502                       55.586589
              0.50058039                       55.445435
              0.50285575                        56.12212
              0.50513112                       57.542704
              0.50740648                       57.658786
              0.50968185                       57.834374
              0.51195721                       59.221338
              0.51423258                       59.756176
              0.51650794                       59.627201
              0.51878331                       60.728168
              0.52105868                        61.64094
              0.52333404                       61.407348
              0.52560941                       62.036342
              0.52788477                       63.170135
              0.53016014                       63.077655
               0.5324355                       63.270066
              0.53471087                        64.49123
              0.53698623                       64.753239
               0.5392616                       64.611431
              0.54153696                       65.685337
              0.54381233                       66.373994
              0.54608769                       66.107146
              0.54836306                       66.836782
              0.55063843                       67.850547
              0.55291379                        67.66809
              0.55518916                       67.956111
              0.55746452                       69.101137
              0.55973989                       69.206573
              0.56201525                        69.12577
              0.56429062                       70.171561
              0.56656598                        70.63612
              0.56884135                       70.345163
              0.57111671                       71.117062
              0.57339208                       71.933123
              0.57566744                       71.658358
              0.57794281                        72.06253
              0.58021818                       73.125005
              0.58249354                       73.104326
              0.58476891                       73.161379
              0.58704427                        74.25513
              0.58931964                        74.58629
                0.591595                       74.377608
              0.59387037                       75.282208
              0.59614573                        75.99979
               0.5984211                       75.731443
              0.60069646                       76.280331
              0.60297183                       77.247953
              0.60524719                       77.101901
              0.60752256                       77.248339
              0.60979793                       78.291426
              0.61207329                          78.443
              0.61434866                       78.288151
              0.61662402                       79.225419
              0.61889939                       79.750972
              0.62117475                       79.465921
              0.62345012                       80.136287
              0.62572548                       80.996456
              0.62800085                       80.791174
              0.63027621                       81.116638
              0.63255158                       82.176747
              0.63482694                       82.239912
              0.63710231                       82.233871
              0.63937768                       83.269772
              0.64165304                       83.688475
              0.64392841                       83.468136
              0.64620377                       84.272352
              0.64847914                       85.033129
               0.6507545                       84.804035
              0.65302987                       85.269662
              0.65530523                        86.25357
               0.6575806                       86.190979
              0.65985596                       86.289762
              0.66213133                       87.305972
              0.66440669                       87.535306
              0.66668206                         87.3663
              0.66895743                       88.261357
              0.67123279                       88.868612
              0.67350816                        88.61626
              0.67578352                       89.233693
              0.67805889                       90.151744
              0.68033425                       90.013782
              0.68260962                       90.281462
              0.68488498                        91.35399
              0.68716035                       91.516517
              0.68943571                         91.4939
              0.69171108                       92.504836
              0.69398644                       93.018933
              0.69626181                       92.832329
              0.69853718                       93.596962
              0.70081254                        94.41885
              0.70308791                       94.258846
              0.70536327                       94.714676
              0.70763864                       95.753374
                0.709914                       95.779395
              0.71218937                       95.882598
              0.71446473                        96.93783
               0.7167401                       97.262351
              0.71901546                       97.098892
              0.72129083                        98.00732
               0.7235662                       98.744375
              0.72584156                       98.567405
              0.72811693                       99.190447
              0.73039229                       100.21541
              0.73266766                       100.19258
              0.73494302                       100.47178
              0.73721839                       101.61284
              0.73949375                       101.93781
              0.74176912                        102.0443
              0.74404448                       103.20374
              0.74631985                       103.92889
              0.74859521                        103.9108
              0.75087058                       104.82146
              0.75314595                       105.80756
              0.75542131                       105.74315
              0.75769668                       106.29338
              0.75997204                         107.541
              0.76224741                       107.75767
              0.76452277                        107.9958
              0.76679814                       109.30702
               0.7690735                       109.94391
              0.77134887                        109.9965
              0.77362423                       111.17478
               0.7758996                       112.33805
              0.77817496                       112.62529
              0.78045033                        113.7605
               0.7827257                       115.40824
              0.78500106                       116.07552
              0.78727643                       117.10795
              0.78955179                       118.96778
              0.79182716                       119.89756
              0.79410252                       120.81775
              0.79637789                        123.1217
              0.79865325                       124.89631
              0.80092862                        125.9617
              0.80320398                       128.47279
              0.80547935                       131.03148
              0.80775471                        132.1566
              0.81003008                       134.60029
              0.81230545                       138.71297
              0.81458081                       141.73874
              0.81685618                       145.05079
              0.81913154                       149.80106
              0.82140691                       151.29467
              0.82368227                       147.38435
              0.82595764                       140.46523
                0.828233                       128.18616
              0.83050837                       108.16343
              0.83278373                       88.273274
               0.8350591                       77.433206
              0.83733446                       74.648173
              0.83960983                       75.728512
               0.8418852                       78.996963
              0.84416056                       82.144448
              0.84643593                       83.974395
              0.84871129                       86.348957
              0.85098666                       89.441915
              0.85326202                       91.659555
              0.85553739                       93.692699
              0.85781275                        96.21134
              0.86008812                       97.993741
              0.86236348                       99.263793
              0.86463885                       101.02249
              0.86691421                       102.50037
              0.86918958                       103.56996
              0.87146495                       105.17008
              0.87374031                       106.57129
              0.87601568                       107.15906
              0.87829104                       107.95496
              0.88056641                       108.65916
              0.88284177                       108.28725
              0.88511714                       107.79772
               0.8873925                       107.52116
              0.88966787                       106.26341
              0.89194323                        104.6677
               0.8942186                       103.83536
              0.89649396                       102.75143
              0.89876933                        101.4013
               0.9010447                       101.23144
              0.90332006                       101.51812
              0.90559543                       101.23167
              0.90787079                       101.57373
              0.91014616                       102.60621
              0.91242152                       103.00429
              0.91469689                       103.51677
              0.91697225                       104.84091
              0.91924762                       105.62339
              0.92152298                       106.00773
              0.92379835                       107.25848
              0.92607372                       108.37548
              0.92834908                       108.69419
              0.93062445                       109.57332
              0.93289981                       110.70659
              0.93517518                       110.92693
              0.93745054                       111.36739
              0.93972591                       112.48997
              0.94200127                        112.8439
              0.94427664                       112.89665
                0.946552                       113.79234
              0.94882737                       114.35427
              0.95110273                        114.2836
               0.9533781                       115.00077
              0.95565347                       115.88732
              0.95792883                       115.95654
               0.9602042                       116.49608
              0.96247956                       117.62864
              0.96475493                       117.96969
              0.96703029                       118.30541
              0.96930566                       119.46833
              0.97158102                        120.0674
              0.97385639                       120.15178
              0.97613175                       121.05061
              0.97840712                       121.79951
              0.98068248                       121.69313
              0.98295785                       122.17736
              0.98523322                       123.01072
              0.98750858                       122.90583
              0.98978395                       122.96505
              0.99205931                       123.77597
              0.99433468                       123.90801
              0.99661004                       123.80432
              0.99888541                       124.66411
               1.0011608                       125.27049
               1.0034361                       125.23235
               1.0057115                       126.01533
               1.0079869                       127.01573
               1.0102622                       127.15794
               1.0125376                       127.75667
                1.014813                       128.97572
               1.0170883                       129.31974
               1.0193637                       129.55551
               1.0216391                       130.61054
               1.0239144                       131.03482
               1.0261898                       130.83356
               1.0284652                        131.4826
               1.0307405                       132.04321
               1.0330159                       131.70661
               1.0352913                       132.00393
               1.0375666                       132.78696
                1.039842                       132.67484
               1.0421174                       132.77926
               1.0443927                       133.78613
               1.0466681                       134.17777
               1.0489434                       134.32247
               1.0512188                       135.48597
               1.0534942                       136.39383
               1.0557695                       136.56182
               1.0580449                       137.51542
               1.0603203                       138.60873
               1.0625956                       138.65074
                1.064871                       139.07615
               1.0671464                        140.1375
               1.0694217                       140.19992
               1.0716971                        140.0788
               1.0739725                       140.89392
               1.0762478                       141.11307
               1.0785232                       140.67004
               1.0807986                       141.22567
               1.0830739                       141.86366
               1.0853493                       141.64193
               1.0876247                       142.15317
                  1.0899                       143.27101
               1.0921754                       143.48349
               1.0944508                       143.92844
               1.0967261                       145.30131
               1.0990015                       145.92604
               1.1012769                       146.23661
               1.1035522                       147.61823
               1.1058276                        148.5675
               1.1081029                       148.54529
               1.1103783                       149.36818
               1.1126537                        150.2932
                1.114929                        149.8695
               1.1172044                       149.82192
               1.1194798                        150.6614
               1.1217551                       150.54799
               1.1240305                       150.32231
               1.1263059                       151.31311
               1.1285812                       151.82979
               1.1308566                       151.70538
                1.133132                       152.72302
               1.1354073                       153.84559
               1.1376827                       154.11199
               1.1399581                       155.33503
               1.1422334                       157.14327
               1.1445088                       157.75426
               1.1467842                        158.6583
               1.1490595                       160.49406
               1.1513349                       161.03446
               1.1536103                        161.0769
               1.1558856                       162.56474
                1.158161                       163.47589
               1.1604364                       163.09153
               1.1627117                       163.92607
               1.1649871                       165.10088
               1.1672624                       164.65697
               1.1695378                       164.79204
               1.1718132                       166.26039
               1.1740885                        166.8839
               1.1763639                       167.79985
               1.1786393                       170.31031
               1.1809146                       172.04689
                 1.18319                       173.31441
               1.1854654                       176.17431
               1.1877407                       178.27729
               1.1900161                       179.15237
               1.1922915                         182.492
               1.1945668                       186.42738
               1.1968422                       187.65044
               1.1991176                       190.29902
               1.2013929                       194.95492
               1.2036683                        195.4678
               1.2059437                        194.7858
                1.208219                       199.40242
               1.2104944                       203.74175
               1.2127698                        204.7305
               1.2150451                       210.12027
               1.2173205                       216.13928
               1.2195959                       211.08616
               1.2218712                       200.84034
               1.2241466                       191.69095
               1.2264219                       169.29585
               1.2286973                       131.97308
               1.2309727                        106.8846
                1.233248                       106.27566
               1.2355234                       112.76964
               1.2377988                        116.7616
               1.2400741                       123.22883
               1.2423495                       129.08594
               1.2446249                       129.85612
               1.2469002                       131.33384
               1.2491756                       135.71583
                1.251451                       138.13595
               1.2537263                       139.22163
               1.2560017                       141.61293
               1.2582771                       142.83234
               1.2605524                       142.50677
               1.2628278                        143.4927
               1.2651032                        144.9944
               1.2673785                       145.62591
               1.2696539                       146.77341
               1.2719293                       148.11121
               1.2742046                       148.59794
                 1.27648                       149.75461
               1.2787554                       151.81891
               1.2810307                        153.2691
               1.2833061                       154.76395
               1.2855814                       156.73422
               1.2878568                       157.76647
               1.2901322                       158.32264
               1.2924075                       158.80457
               1.2946829                       157.02516
               1.2969583                       153.90192
               1.2992336                       153.48896
                1.301509                       155.07927
               1.3037844                       155.30599
               1.3060597                       155.01135
               1.3083351                       155.67761
               1.3106105                       156.04594
               1.3128858                       156.20553
               1.3151612                        157.2593
               1.3174366                       158.28462
               1.3197119                       159.01733
               1.3219873                       160.48508
               1.3242627                       161.89544
                1.326538                       162.50894
               1.3288134                       163.32767
               1.3310888                       163.84012
               1.3333641                        162.8607
               1.3356395                       161.63705
               1.3379149                       160.92112
               1.3401902                        159.5914
               1.3424656                        158.2082
               1.3447409                       157.77065
               1.3470163                       157.07436
               1.3492917                       156.02729
                1.351567                       156.17367
               1.3538424                        156.8418
               1.3561178                       157.02625
               1.3583931                       158.02351
               1.3606685                       159.93289
               1.3629439                       161.34968
               1.3652192                       162.87156
               1.3674946                       165.01067
                 1.36977                       166.34079
               1.3720453                       167.04228
               1.3743207                       168.30744
               1.3765961                       169.06112
               1.3788714                       168.76314
               1.3811468                       168.83222
               1.3834222                       168.86301
               1.3856975                       167.80679
               1.3879729                       167.07484
               1.3902483                        167.2022
               1.3925236                       166.77698
                1.394799                       166.43906
               1.3970744                       167.35419
               1.3993497                       168.23763
               1.4016251                       168.81905
               1.4039004                       170.56637
               1.4061758                       172.83271
               1.4084512                       174.60292
               1.4107265                       176.96266
               1.4130019                       179.71622
               1.4152773                        181.4242
               1.4175526                       182.86901
                1.419828                       184.60253
               1.4221034                       185.13847
               1.4243787                       184.79199
               1.4266541                       184.94696
               1.4289295                       184.55879
               1.4312048                       183.18349
               1.4334802                       182.51147
               1.4357556                       182.26968
               1.4380309                       181.32834
               1.4403063                       181.06153
               1.4425817                       182.02832
                1.444857                       182.76485
               1.4471324                        183.7934
               1.4494078                       186.13716
               1.4516831                        188.4235
               1.4539585                       190.35674
               1.4562339                       193.16794
               1.4585092                       195.81936
               1.4607846                       197.32397
               1.4630599                       199.08413
               1.4653353                       200.80946
               1.4676107                       200.89539
                1.469886                       200.51751
               1.4721614                       200.54942
               1.4744368                        199.3818
               1.4767121                       197.59404
               1.4789875                       197.13288
               1.4812629                       196.84458
               1.4835382                       195.93105
               1.4858136                       196.25649
                1.488089                        197.5965
               1.4903643                       198.39737
               1.4926397                       199.84575
               1.4949151                       202.55542
               1.4971904                       204.97576
               1.4994658                       207.59076
               1.5017412                        211.2496
               1.5040165                       214.13517
               1.5062919                       215.94162
               1.5085673                       218.11713
               1.5108426                       219.29395
                1.513118                       218.61151
               1.5153934                       218.57136
               1.5176687                       219.10173
               1.5199441                       217.90805
               1.5222194                       216.68329
               1.5244948                       217.08807
               1.5267702                       216.64643
               1.5290455                       215.34783
               1.5313209                       216.20913
               1.5335963                        218.4346
               1.5358716                       220.28374
                1.538147                       223.37302
               1.5404224                       227.64403
               1.5426977                       230.99137
               1.5449731                       234.04639
               1.5472485                       237.32238
               1.5495238                       239.74719
               1.5517992                        242.8014
               1.5540746                        246.8797
               1.5563499                       248.58528
               1.5586253                       248.74847
               1.5609007                       250.68502
                1.563176                       250.79602
               1.5654514                       247.32713
               1.5677268                       247.83903
               1.5700021                       253.57114
               1.5722775                       256.90046
               1.5745529                       259.78276
               1.5768282                       267.09416
               1.5791036                       269.38008
               1.5813789                       262.01908
               1.5836543                       260.95118
               1.5859297                       273.42478
                1.588205                       281.44656
               1.5904804                        270.2212
               1.5927558                       244.48357
               1.5950311                       215.55736
               1.5973065                        195.4514
               1.5995819                       190.91226
               1.6018572                       190.25582
               1.6041326                       177.98289
                1.606408                        161.4592
               1.6086833                       156.42467
               1.6109587                       159.32138
               1.6132341                       160.01167
               1.6155094                       161.38868
               1.6177848                       166.51501
               1.6200602                       169.05861
               1.6223355                        167.2745
               1.6246109                       167.02842
               1.6268863                       169.75602
               1.6291616                       173.27087
                1.631437                       178.36676
               1.6337124                       184.11289
               1.6359877                       186.40132
               1.6382631                       186.08957
               1.6405384                       187.88291
               1.6428138                        191.0179
               1.6450892                       191.21854
               1.6473645                       188.97994
               1.6496399                       187.32562
               1.6519153                       185.78404
               1.6541906                       183.01971
                1.656466                       180.48931
               1.6587414                       179.44166
               1.6610167                       179.02273
               1.6632921                        178.8469
               1.6655675                       179.28205
               1.6678428                       179.85253
               1.6701182                        180.3721
               1.6723936                       181.54875
               1.6746689                        183.2615
               1.6769443                       184.87655
               1.6792197                       186.42642
                1.681495                       187.44014
               1.6837704                       187.17241
               1.6860458                       186.46982
               1.6883211                        186.1536
               1.6905965                       185.20756
               1.6928719                       183.30205
               1.6951472                       181.69186
               1.6974226                       180.53561
               1.6996979                        179.3321
               1.7019733                       178.80823
               1.7042487                       179.20837
                1.706524                       179.78047
               1.7087994                       180.96557
               1.7110748                        183.3126
               1.7133501                        185.8154
               1.7156255                       188.24808
               1.7179009                        191.5487
               1.7201762                       195.13541
               1.7224516                        198.0144
                1.724727                       200.70572
               1.7270023                        203.0616
               1.7292777                       203.97348
               1.7315531                       203.88938
               1.7338284                       203.53175
               1.7361038                       202.23373
               1.7383792                       200.25834
               1.7406545                        198.7988
               1.7429299                       197.50925
               1.7452053                       196.07201
               1.7474806                       195.61703
                1.749756                       196.15011
               1.7520314                       196.77994
               1.7543067                       198.18634
               1.7565821                        200.8132
               1.7588574                       203.55738
               1.7611328                       206.39125
               1.7634082                       209.97365
               1.7656835                       213.35055
               1.7679589                       215.84131
               1.7702343                       218.04081
               1.7725096                       219.40182
                1.774785                       219.09503
               1.7770604                       217.97361
               1.7793357                       216.40494
               1.7816111                        213.8254
               1.7838865                       211.20501
               1.7861618                       209.51962
               1.7884372                       207.92859
               1.7907126                       206.52814
               1.7929879                       206.53399
               1.7952633                       207.36518
               1.7975387                       208.27645
                1.799814                       210.31056
               1.8020894                       213.54839
               1.8043648                        216.8384
               1.8066401                       220.39645
               1.8089155                         224.344
               1.8111909                       227.43809
               1.8134662                       229.59672
               1.8157416                       231.40785
               1.8180169                       231.91879
               1.8202923                       230.76762
               1.8225677                       229.07543
                1.824843                       226.76592
               1.8271184                       223.54423
               1.8293938                       220.79067
               1.8316691                       218.92346
               1.8339445                       217.09177
               1.8362199                       216.17265
               1.8384952                       217.05397
               1.8407706                        218.5369
                1.843046                       220.48609
               1.8453213                       224.05792
               1.8475967                        228.3079
               1.8498721                       232.02967
               1.8521474                       236.19508
               1.8544228                       240.84447
               1.8566982                       244.39235
               1.8589735                       246.65981
               1.8612489                       247.83974
               1.8635243                       246.95378
               1.8657996                       244.17772
                1.868075                       240.76912
               1.8703504                        237.0015
               1.8726257                       233.41453
               1.8749011                       230.99879
               1.8771764                        229.2167
               1.8794518                       227.71521
               1.8817272                       227.66581
               1.8840025                       228.86447
               1.8862779                       230.30573
               1.8885533                       233.31817
               1.8908286                       238.82036
                1.893104                       244.78873
               1.8953794                       250.06898
               1.8976547                       255.56756
               1.8999301                       260.87965
               1.9022055                       264.66004
               1.9044808                       266.92619
               1.9067562                       268.33923
               1.9090316                       269.09913
               1.9113069                       268.56194
               1.9135823                        265.8802
               1.9158577                       262.09152
                1.918133                       258.40119
               1.9204084                       253.54726
               1.9226838                        249.1129
               1.9249591                       250.94808
               1.9272345                       258.43247
               1.9295099                       264.82917
               1.9317852                       270.00977
               1.9340606                       274.98084
               1.9363359                       272.83429
               1.9386113                       265.55131
               1.9408867                       267.39959
                1.943162                       273.88282
               1.9454374                       262.05062
               1.9477128                       231.88672
               1.9499881                       206.80262
               1.9522635                       195.22382
               1.9545389                       190.10523
               1.9568142                       190.15806
               1.9590896                       191.74349
                1.961365                       185.49103
               1.9636403                        175.5218
               1.9659157                       173.30931
               1.9681911                       175.90961
               1.9704664                       176.49915
               1.9727418                       179.35085
               1.9750172                       185.91503
               1.9772925                       188.91801
               1.9795679                       187.63072
               1.9818433                       188.16321
               1.9841186                       191.71107
                1.986394                       196.34743
               1.9886694                       201.54672
               1.9909447                       205.46582
               1.9932201                       206.15888
               1.9954954                       204.32714
               1.9977708                        201.6067
               2.0000462                       199.94785
               2.0023215                       200.12498
               2.0045969                       199.51886
               2.0068723                       197.16749
               2.0091476                       196.16279
                2.011423                       196.12634
               2.0136984                       194.33615
               2.0159737                       194.19545
               2.0182491                       198.85904
               2.0205245                       203.77359
               2.0227998                       206.57162
               2.0250752                       210.58252
               2.0273506                       214.59295
               2.0296259                        215.4314
               2.0319013                       215.97215
               2.0341767                       217.61347
                2.036452                       216.87385
               2.0387274                       214.58301
               2.0410028                       213.55511
               2.0432781                       211.28592
               2.0455535                       206.87511
               2.0478289                       203.87661
               2.0501042                       201.90716
               2.0523796                       198.99733
                2.054655                       197.65607
               2.0569303                       198.41144
               2.0592057                       198.45797
                2.061481                       199.22507
               2.0637564                       202.65506
               2.0660318                       206.04488
               2.0683071                       209.16546
               2.0705825                       214.63583
               2.0728579                       220.44652
               2.0751332                       224.50062
               2.0774086                       229.17605
                2.079684                       233.87723
               2.0819593                       235.49037
               2.0842347                       235.70031
               2.0865101                       235.93555
               2.0887854                       233.55452
               2.0910608                       229.46247
               2.0933362                       226.83242
               2.0956115                       224.10402
               2.0978869                       220.48758
               2.1001623                       219.01221
               2.1024376                       219.03661
                2.104713                       218.38914
               2.1069884                        219.5108
               2.1092637                       223.08894
               2.1115391                       226.04861
               2.1138145                       229.40007
               2.1160898                       235.16444
               2.1183652                       240.44539
               2.1206405                       244.28567
               2.1229159                       249.07286
               2.1251913                       252.87995
               2.1274666                       253.34422
                2.129742                       253.05466
               2.1320174                       252.33564
               2.1342927                       248.68009
               2.1365681                       244.26908
               2.1388435                       241.45114
               2.1411188                       238.01957
               2.1433942                       234.53128
               2.1456696                       233.85241
               2.1479449                        234.0451
               2.1502203                       233.71302
               2.1524957                       235.79178
                2.154771                       239.76819
               2.1570464                       243.01374
               2.1593218                       247.57641
               2.1615971                       254.19233
               2.1638725                       259.39788
               2.1661479                       263.48581
               2.1684232                       268.17515
               2.1706986                       270.34689
                2.172974                       268.92463
               2.1752493                       267.02714
               2.1775247                       263.86719
                  2.1798                       257.90299
               2.1820754                       252.54138
               2.1843508                       248.75162
               2.1866261                       243.97588
               2.1889015                       240.22385
               2.1911769                       239.77349
               2.1934522                       239.80563
               2.1957276                       240.17944
                2.198003                       243.61431
               2.2002783                       247.92346
               2.2025537                       251.35916
               2.2048291                       257.00234
               2.2071044                       264.11752
               2.2093798                       269.13241
               2.2116552                       273.79547
               2.2139305                       279.04716
               2.2162059                       280.98462
               2.2184813                       279.84402
               2.2207566                       278.46011
                2.223032                       274.74025
               2.2253074                       268.62569
               2.2275827                        264.8488
               2.2298581                       262.87898
               2.2321335                       259.51223
               2.2344088                       257.32651
               2.2366842                       257.59116
               2.2389595                        257.1926
               2.2412349                       257.86893
               2.2435103                        262.9733
               2.2457856                       269.49051
                2.248061                       275.40725
               2.2503364                       282.86017
               2.2526117                       289.78384
               2.2548871                       292.89032
               2.2571625                       294.40683
               2.2594378                       295.86339
               2.2617132                        295.7674
               2.2639886                       294.76114
               2.2662639                       292.14002
               2.2685393                       284.83872
               2.2708147                       275.43841
                 2.27309                       268.92088
               2.2753654                       264.71447

